Data Analysis of Hulu and Netflix Statistics - Matt Aribowo (Rmarkdown)
…
netflix %>%
  group_by(country1) %>%
  summarize(n = n()) %>%
  arrange(desc(n))

## # A tibble: 73 x 2
##    country1           n
##    <chr>          <int>
##  1 United States   2302
##  2 India            808
##  3 United Kingdom   483
##  4 <NA>             476
##  5 Canada           206
##  6 Japan            184
##  7 France           147
##  8 South Korea      146
##  9 Spain            139
## 10 Mexico            99
## #  with 63 more rows

netflix %>%
  group_by(genre1) %>%
  summarize(n = n()) %>%
  arrange(desc(n))

## # A tibble: 35 x 2
##    genre1                       n
##    <chr>                    <int>
##  1 Dramas                    1077
##  2 Comedies                   803
##  3 Documentaries              644
##  4 Action & Adventure         597
##  5 International TV Shows     570
##  6 Children & Family Movies   358
##  7 Crime TV Shows             309
##  8 Kids' TV                   288
##  9 Stand-Up Comedy            273
## 10 British TV Shows           210
## #  with 25 more rows
…
